% $ biblatex auxiliary file $
% $ biblatex bbl format version 2.8 $
% Do not modify the above lines!
%
% This is an auxiliary file used by the 'biblatex' package.
% This file may safely be deleted. It will be recreated by
% biber as required.
%
\begingroup
\makeatletter
\@ifundefined{ver@biblatex.sty}
  {\@latex@error
     {Missing 'biblatex' package}
     {The bibliography requires the 'biblatex' package.}
      \aftergroup\endinput}
  {}
\endgroup


\refsection{0}
  \sortlist[entry]{nty/global/}
    \entry{Jech:2003tt}{book}{}
      \name{author}{1}{}{%
        {{hash=b8ddd852d7bc9bcd5d92f6c9c3251005}{%
           family={Jech},
           familyi={J\bibinitperiod},
           given={Thomas},
           giveni={T\bibinitperiod}}}%
      }
      \list{publisher}{1}{%
        {Springer-Verlag, Berlin}%
      }
      \strng{namehash}{b8ddd852d7bc9bcd5d92f6c9c3251005}
      \strng{fullhash}{b8ddd852d7bc9bcd5d92f6c9c3251005}
      \strng{authornamehash}{b8ddd852d7bc9bcd5d92f6c9c3251005}
      \strng{authorfullhash}{b8ddd852d7bc9bcd5d92f6c9c3251005}
      \field{sortinit}{J}
      \field{sortinithash}{c86bd6cced82a15683b396c2169909ef}
      \field{labelnamesource}{author}
      \field{labeltitlesource}{title}
      \field{series}{Springer Monographs in Mathematics}
      \field{title}{{Set theory}}
      \field{year}{2003}
    \endentry
    \entry{Levy:1960wx}{article}{}
      \name{author}{1}{}{%
        {{hash=2a6f3ba1edb63863f20ec71c6143c000}{%
           family={Lévy},
           familyi={L\bibinitperiod},
           given={Azriel},
           giveni={A\bibinitperiod}}}%
      }
      \strng{namehash}{2a6f3ba1edb63863f20ec71c6143c000}
      \strng{fullhash}{2a6f3ba1edb63863f20ec71c6143c000}
      \strng{authornamehash}{2a6f3ba1edb63863f20ec71c6143c000}
      \strng{authorfullhash}{2a6f3ba1edb63863f20ec71c6143c000}
      \field{sortinit}{L}
      \field{sortinithash}{7bba64db83423e3c29ad597f3b682cf3}
      \field{labelnamesource}{author}
      \field{labeltitlesource}{title}
      \field{journaltitle}{Pacific Journal of Mathematics}
      \field{number}{1}
      \field{title}{{Axiom schemata of strong infinity in axiomatic set theory}}
      \field{volume}{10}
      \field{year}{1960}
      \field{pages}{223\bibrangedash 238}
      \range{pages}{16}
    \endentry
    \entry{Shulman:2008th}{article}{}
      \name{author}{1}{}{%
        {{hash=3159e92232c9d8572bcc466447bae96e}{%
           family={Shulman},
           familyi={S\bibinitperiod},
           given={Michael\bibnamedelima A},
           giveni={M\bibinitperiod\bibinitdelim A\bibinitperiod}}}%
      }
      \strng{namehash}{3159e92232c9d8572bcc466447bae96e}
      \strng{fullhash}{3159e92232c9d8572bcc466447bae96e}
      \strng{authornamehash}{3159e92232c9d8572bcc466447bae96e}
      \strng{authorfullhash}{3159e92232c9d8572bcc466447bae96e}
      \field{sortinit}{S}
      \field{sortinithash}{3c1547c63380458f8ca90e40ed14b83e}
      \field{labelnamesource}{author}
      \field{labeltitlesource}{title}
      \field{eprintclass}{math.CT}
      \field{eprinttype}{arxiv}
      \field{journaltitle}{arXiv}
      \field{month}{10}
      \field{title}{{Set theory for category theory}}
      \field{year}{2008}
      \verb{eprint}
      \verb 0810.1279v2
      \endverb
    \endentry
    \entry{Anonymous:1972tk}{book}{}
      \list{publisher}{1}{%
        {Springer-Verlag, Berlin-New York}%
      }
      \field{sortinit}{T}
      \field{sortinithash}{2e5c2f51f7fa2d957f3206819bf86dc3}
      \field{labeltitlesource}{title}
      \field{series}{Lecture Notes in Mathematics, Vol. 269}
      \field{title}{{Théorie des topos et cohomologie étale des schémas. Tome 1: Théorie des topos}}
      \field{year}{1972}
    \endentry
  \endsortlist
\endrefsection
\endinput

